graph {
  0;
  1;
  2;
  3;
  4;
  5;
  6;
  7;
  8;
  9;
  10;
  11;
  12;
  13;
  14;
  15;
  16;
  17;
  18;
  19;
  20;
  21;
  22;
  23;
  24;
  25;
  26;
  27;
  28;
  29;
  30;
  31;
  32;
  33;
  34;
  35;
  36;
  37;
  38;
  39;
  40;
  41;
  42;
  43;
  44;
  45;
  46;
  47;
  48;
  49;
  50;
  51;
  52;
  53;
  54;
  55;
  56;
  57;
  58;
  59;
  60;
  61;
  62;
  63;
  64;
  65;
  66;
  67;
  68;
  69;
  70;
  71;
  72;
  73;
  74;
  75;
  76;
  77;
  78;
  79;
  38 -- 48[label=1.000000];
  53 -- 54[label=1.000000];
  48 -- 49[label=1.000000];
  36 -- 37[label=1.000000];
  0 -- 1[label=1.000000];
  1 -- 2[label=1.000000];
  31 -- 32[label=1.000000];
  49 -- 59[label=1.000000];
  7 -- 8[label=1.000000];
  15 -- 25[label=1.000000];
  12 -- 22[label=1.000000];
  70 -- 71[label=1.000000];
  11 -- 12[label=1.000000];
  42 -- 52[label=1.000000];
  32 -- 42[label=1.000000];
  75 -- 76[label=1.000000];
  67 -- 77[label=1.000000];
  14 -- 15[label=1.000000];
  2 -- 3[label=1.000000];
  78 -- 79[label=1.000000];
  59 -- 69[label=1.000000];
  58 -- 59[label=1.000000];
  68 -- 78[label=1.000000];
  52 -- 53[label=1.000000];
  29 -- 39[label=1.000000];
  40 -- 41[label=1.000000];
  63 -- 64[label=1.000000];
  3 -- 13[label=1.000000];
  16 -- 26[label=1.000000];
  62 -- 72[label=1.000000];
  8 -- 18[label=1.000000];
  23 -- 33[label=1.000000];
  6 -- 16[label=1.000000];
  4 -- 14[label=1.000000];
  44 -- 54[label=1.000000];
  56 -- 57[label=1.000000];
  28 -- 29[label=1.000000];
  60 -- 70[label=1.000000];
  54 -- 64[label=1.000000];
  65 -- 75[label=1.000000];
  24 -- 34[label=1.000000];
  57 -- 67[label=1.000000];
  38 -- 39[label=1.000000];
  45 -- 46[label=1.000000];
  57 -- 58[label=1.000000];
  46 -- 47[label=1.000000];
  66 -- 67[label=1.000000];
  25 -- 26[label=1.000000];
  20 -- 21[label=1.000000];
  53 -- 63[label=1.000000];
  0 -- 10[label=1.000000];
  31 -- 41[label=1.000000];
  41 -- 42[label=1.000000];
  55 -- 56[label=1.000000];
  54 -- 55[label=1.000000];
  47 -- 57[label=1.000000];
  32 -- 33[label=1.000000];
  34 -- 35[label=1.000000];
  71 -- 72[label=1.000000];
  19 -- 29[label=1.000000];
  43 -- 53[label=1.000000];
  18 -- 28[label=1.000000];
  35 -- 45[label=1.000000];
  42 -- 43[label=1.000000];
  6 -- 7[label=1.000000];
  23 -- 24[label=1.000000];
  69 -- 79[label=1.000000];
  40 -- 50[label=1.000000];
  64 -- 74[label=1.000000];
  3 -- 4[label=1.000000];
  9 -- 19[label=1.000000];
  16 -- 17[label=1.000000];
  65 -- 66[label=1.000000];
  12 -- 13[label=1.000000];
  5 -- 6[label=1.000000];
  46 -- 56[label=1.000000];
  27 -- 37[label=1.000000];
  7 -- 17[label=1.000000];
  17 -- 27[label=1.000000];
  63 -- 73[label=1.000000];
  72 -- 73[label=1.000000];
  22 -- 23[label=1.000000];
  44 -- 45[label=1.000000];
  18 -- 19[label=1.000000];
  8 -- 9[label=1.000000];
  62 -- 63[label=1.000000];
  11 -- 21[label=1.000000];
  56 -- 66[label=1.000000];
  43 -- 44[label=1.000000];
  37 -- 38[label=1.000000];
  26 -- 27[label=1.000000];
  58 -- 68[label=1.000000];
  45 -- 55[label=1.000000];
  64 -- 65[label=1.000000];
  37 -- 47[label=1.000000];
  33 -- 43[label=1.000000];
  50 -- 60[label=1.000000];
  17 -- 18[label=1.000000];
  27 -- 28[label=1.000000];
  34 -- 44[label=1.000000];
  4 -- 5[label=1.000000];
  77 -- 78[label=1.000000];
  39 -- 49[label=1.000000];
  76 -- 77[label=1.000000];
  2 -- 12[label=1.000000];
  51 -- 52[label=1.000000];
  28 -- 38[label=1.000000];
  1 -- 11[label=1.000000];
  10 -- 20[label=1.000000];
  52 -- 62[label=1.000000];
  22 -- 32[label=1.000000];
  21 -- 22[label=1.000000];
  41 -- 51[label=1.000000];
  14 -- 24[label=1.000000];
  67 -- 68[label=1.000000];
  36 -- 46[label=1.000000];
  21 -- 31[label=1.000000];
  47 -- 48[label=1.000000];
  33 -- 34[label=1.000000];
  66 -- 76[label=1.000000];
  26 -- 36[label=1.000000];
  15 -- 16[label=1.000000];
  61 -- 62[label=1.000000];
  13 -- 14[label=1.000000];
  30 -- 40[label=1.000000];
  74 -- 75[label=1.000000];
  50 -- 51[label=1.000000];
  61 -- 71[label=1.000000];
  68 -- 69[label=1.000000];
  35 -- 36[label=1.000000];
  13 -- 23[label=1.000000];
  73 -- 74[label=1.000000];
  5 -- 15[label=1.000000];
  25 -- 35[label=1.000000];
  10 -- 11[label=1.000000];
  48 -- 58[label=1.000000];
  24 -- 25[label=1.000000];
  55 -- 65[label=1.000000];
  20 -- 30[label=1.000000];
  30 -- 31[label=1.000000];
  60 -- 61[label=1.000000];
  51 -- 61[label=1.000000];
}